\boolfalse {citerequest}\boolfalse {citetracker}\boolfalse {pagetracker}\boolfalse {backtracker}\relax 
\defcounter {refsection}{0}\relax 
\contentsline {section}{\numberline {1}Cyclotomic Extensions (again)}{5}{section.1}% 
\defcounter {refsection}{0}\relax 
\contentsline {section}{\numberline {2}Commutative Algebra and Algebraic Geometry}{8}{section.2}% 
\defcounter {refsection}{0}\relax 
\contentsline {subsection}{\numberline {2.1}Noetherian Rings}{9}{subsection.2.1}% 
\defcounter {refsection}{0}\relax 
\contentsline {subsection}{\numberline {2.2}Operations on \(R\)-ideals}{10}{subsection.2.2}% 
